{
  "photos": {
    "page": 1,
    "pages": 40,
    "perpage": 25,
    "total": 1000,
    "photo": [
      {
        "id": "51371043827",
        "owner": "27026522@N05",
        "secret": "0d4a3b5a2b",
        "server": "65535",
        "farm": 66,
        "title": "2021_08_Trix320_Linhof_4x5_Рязань_02.jpg",
        "ispublic": 1,
        "isfriend": 0,
        "isfamily": 0
      },
      {
        "id": "51371043912",
        "owner": "79006245@N04",
        "secret": "1524cf1446",
        "server": "65535",
        "farm": 66,
        "title": "Driving Route 66 through AZ and NM",
        "ispublic": 1,
        "isfriend": 0,
        "isfamily": 0
      },
      {
        "id": "51371043997",
        "owner": "49311397@N07",
        "secret": "99e9ed6d4b",
        "server": "65535",
        "farm": 66,
        "title": "By MOVE",
        "ispublic": 1,
        "isfriend": 0,
        "isfamily": 0
      },
      {
        "id": "51371044977",
        "owner": "9472244@N02",
        "secret": "fb3b58b819",
        "server": "65535",
        "farm": 66,
        "title": "20131213-6358",
        "ispublic": 1,
        "isfriend": 0,
        "isfamily": 0
      },
      {
        "id": "51371045137",
        "owner": "84218975@N00",
        "secret": "36ca4937ff",
        "server": "65535",
        "farm": 66,
        "title": "IMG_5641.jpg",
        "ispublic": 1,
        "isfriend": 0,
        "isfamily": 0
      },
      {
        "id": "51371045217",
        "owner": "191011897@N05",
        "secret": "773e55c77b",
        "server": "65535",
        "farm": 66,
        "title": "DSC_4700.jpg",
        "ispublic": 1,
        "isfriend": 0,
        "isfamily": 0
      },
      {
        "id": "51371045232",
        "owner": "23685180@N03",
        "secret": "c2e83901eb",
        "server": "65535",
        "farm": 66,
        "title": "IMG_5920.jpg",
        "ispublic": 1,
        "isfriend": 0,
        "isfamily": 0
      },
      {
        "id": "51371802756",
        "owner": "185288333@N07",
        "secret": "3a9e52937e",
        "server": "65535",
        "farm": 66,
        "title": "A-2021-08-12-0202_f",
        "ispublic": 1,
        "isfriend": 0,
        "isfamily": 0
      },
      {
        "id": "51371803726",
        "owner": "190746410@N03",
        "secret": "c715e47ae8",
        "server": "65535",
        "farm": 66,
        "title": "c0b1a686e735eb1981dcc574c9c1bc8d",
        "ispublic": 1,
        "isfriend": 0,
        "isfamily": 0
      },
      {
        "id": "51372031043",
        "owner": "193555508@N08",
        "secret": "c0b66c2b09",
        "server": "65535",
        "farm": 66,
        "title": "Face hardships",
        "ispublic": 1,
        "isfriend": 0,
        "isfamily": 0
      },
      {
        "id": "51372031358",
        "owner": "94105764@N05",
        "secret": "2830891d43",
        "server": "65535",
        "farm": 66,
        "title": "art2-46",
        "ispublic": 1,
        "isfriend": 0,
        "isfamily": 0
      },
      {
        "id": "51372032063",
        "owner": "25914899@N00",
        "secret": "d8a1338aa5",
        "server": "65535",
        "farm": 66,
        "title": "Tiki Disco @ Knockdown Center 8.8.2021 by Kenny Rodriguez",
        "ispublic": 1,
        "isfriend": 0,
        "isfamily": 0
      },
      {
        "id": "51372032243",
        "owner": "158872628@N08",
        "secret": "79e974b005",
        "server": "65535",
        "farm": 66,
        "title": "2021-08-11_07-03-39",
        "ispublic": 1,
        "isfriend": 0,
        "isfamily": 0
      },
      {
        "id": "51372032328",
        "owner": "193711299@N08",
        "secret": "d6fd404ff0",
        "server": "65535",
        "farm": 66,
        "title": "46429eba-4d98-4054-be11-626410879b7d.jpg",
        "ispublic": 1,
        "isfriend": 0,
        "isfamily": 0
      },
      {
        "id": "51372533729",
        "owner": "189309482@N05",
        "secret": "0df2d1f678",
        "server": "65535",
        "farm": 66,
        "title": "💎Solo por hoy, Llevo a cabo mi trabajo y misión correctamente, y desde la paz. (4to Principio de Reiki). 💛El trabajo es la fuente de toda riqueza y cultura. Nos aleja del aburrimiento, vicios y necesidad. Debemos aprovechar al máximo nues",
        "ispublic": 1,
        "isfriend": 0,
        "isfamily": 0
      },
      {
        "id": "51372534309",
        "owner": "68768210@N03",
        "secret": "566fd73ced",
        "server": "65535",
        "farm": 66,
        "title": "IMG_9140.jpg",
        "ispublic": 1,
        "isfriend": 0,
        "isfamily": 0
      },
      {
        "id": "51372806775",
        "owner": "186489504@N08",
        "secret": "aec7268d5f",
        "server": "65535",
        "farm": 66,
        "title": "20210809_120751",
        "ispublic": 1,
        "isfriend": 0,
        "isfamily": 0
      },
      {
        "id": "51372806790",
        "owner": "162922117@N08",
        "secret": "cb065af01a",
        "server": "65535",
        "farm": 66,
        "title": "",
        "ispublic": 1,
        "isfriend": 0,
        "isfamily": 0
      },
      {
        "id": "51372806905",
        "owner": "97102756@N07",
        "secret": "b1b357a0b3",
        "server": "65535",
        "farm": 66,
        "title": "B-2021-08-12-0202_f",
        "ispublic": 1,
        "isfriend": 0,
        "isfamily": 0
      },
      {
        "id": "51372807040",
        "owner": "12639178@N07",
        "secret": "df4740507c",
        "server": "65535",
        "farm": 66,
        "title": "Käfer",
        "ispublic": 1,
        "isfriend": 0,
        "isfamily": 0
      },
      {
        "id": "51372807255",
        "owner": "185888701@N02",
        "secret": "9f9a5378cf",
        "server": "65535",
        "farm": 66,
        "title": "2021-08-11_02-03-01",
        "ispublic": 1,
        "isfriend": 0,
        "isfamily": 0
      },
      {
        "id": "51372807310",
        "owner": "25292778@N00",
        "secret": "dd5d9c43b6",
        "server": "65535",
        "farm": 66,
        "title": "IMG_5631.JPEG",
        "ispublic": 1,
        "isfriend": 0,
        "isfamily": 0
      },
      {
        "id": "51372807780",
        "owner": "101398523@N07",
        "secret": "0d7c8f0544",
        "server": "65535",
        "farm": 66,
        "title": "2021-08-11_07-03-08",
        "ispublic": 1,
        "isfriend": 0,
        "isfamily": 0
      },
      {
        "id": "51372807910",
        "owner": "183755369@N08",
        "secret": "9137170d72",
        "server": "65535",
        "farm": 66,
        "title": "10 perfect recipes for everyday life",
        "ispublic": 1,
        "isfriend": 0,
        "isfamily": 0
      },
      {
        "id": "51372808100",
        "owner": "51036032@N08",
        "secret": "579a3b1b82",
        "server": "65535",
        "farm": 66,
        "title": "",
        "ispublic": 1,
        "isfriend": 0,
        "isfamily": 0
      }
    ]
  },
  "stat": "ok"
}